{"failedCount":0,"prefixedPath":"aula_inatel\/src\/test\/java\/aula_inatel\/prova\/prova.feature","packageQualifiedName":"aula_inatel.src.test.java.aula_inatel.prova.prova","loopIndex":-1,"relativePath":"aula_inatel\/src\/test\/java\/aula_inatel\/prova\/prova.feature","scenarioResults":[{"sectionIndex":3,"stepResults":[{"result":{"nanos":113019000,"millis":113.019,"status":"passed"},"step":{"background":true,"line":4,"prefix":"*","index":0,"text":"def url_base = \"https:\/\/pokeapi.co\/api\/v2\""}},{"result":{"nanos":26624400,"millis":26.6244,"status":"passed"},"step":{"line":24,"prefix":"Given","index":0,"text":"url url_base"}},{"result":{"nanos":529400,"millis":0.5294,"status":"passed"},"step":{"line":25,"prefix":"And","index":1,"text":"path \"\/pokemon\""}},{"result":{"nanos":20324365900,"millis":20324.3659,"status":"passed"},"step":{"line":26,"prefix":"When","index":2,"text":"method get"},"stepLog":"23:25:13.451 request:\n1 > GET https:\/\/pokeapi.co\/api\/v2\/pokemon\n1 > Host: pokeapi.co\n1 > Connection: Keep-Alive\n1 > User-Agent: Apache-HttpClient\/4.5.14 (Java\/17.0.6)\n1 > Accept-Encoding: gzip,deflate\n\n\n23:25:33.356 response time in milliseconds: 627\n1 < 200\n1 < Date: Tue, 27 Jun 2023 02:25:14 GMT\n1 < Content-Type: application\/json; charset=utf-8\n1 < Connection: keep-alive\n1 < access-control-allow-origin: *\n1 < Cache-Control: public, max-age=86400, s-maxage=86400\n1 < etag: W\/\"588-lkKxb4UAQba+jzmIaSKjLOTghRY\"\n1 < function-execution-id: jswakf2ohyug\n1 < strict-transport-security: max-age=31556926\n1 < x-cloud-trace-context: 67716d733dadd86146d6238f43160cd9;o=1\n1 < x-country-code: ZA\n1 < x-orig-accept-language: uk,en-US;q=0.9,en;q=0.8,ru;q=0.7\n1 < x-powered-by: Express\n1 < x-served-by: cache-jnb7025-JNB\n1 < x-cache: HIT\n1 < x-cache-hits: 8\n1 < x-timer: S1681534992.086773,VS0,VE0\n1 < vary: Accept-Encoding,cookie,need-authorization, x-fh-requested-host, accept-encoding\n1 < alt-svc: h3=\":443\"; ma=86400\n1 < CF-Cache-Status: HIT\n1 < Age: 27704\n1 < Accept-Ranges: bytes\n1 < Report-To: {\"endpoints\":[{\"url\":\"https:\\\/\\\/a.nel.cloudflare.com\\\/report\\\/v3?s=AOR2a19nk0ze1RPAR2sSRwa7T6RoV5B9aCkiNwzNPMlSTW67ISpmmN%2BWXy2%2BUuNhDhK2Hbwnls8HS36sqtyNAdmtTHx3llvqo%2Fwir4%2BAKovb7lJ0R9m2mXyoFfZd\"}],\"group\":\"cf-nel\",\"max_age\":604800}\n1 < NEL: {\"success_fraction\":0,\"report_to\":\"cf-nel\",\"max_age\":604800}\n1 < Server: cloudflare\n1 < CF-RAY: 7dda3cfe7d7431ea-MIA\n{\"count\":1281,\"next\":\"https:\/\/pokeapi.co\/api\/v2\/pokemon?offset=20&limit=20\",\"previous\":null,\"results\":[{\"name\":\"bulbasaur\",\"url\":\"https:\/\/pokeapi.co\/api\/v2\/pokemon\/1\/\"},{\"name\":\"ivysaur\",\"url\":\"https:\/\/pokeapi.co\/api\/v2\/pokemon\/2\/\"},{\"name\":\"venusaur\",\"url\":\"https:\/\/pokeapi.co\/api\/v2\/pokemon\/3\/\"},{\"name\":\"charmander\",\"url\":\"https:\/\/pokeapi.co\/api\/v2\/pokemon\/4\/\"},{\"name\":\"charmeleon\",\"url\":\"https:\/\/pokeapi.co\/api\/v2\/pokemon\/5\/\"},{\"name\":\"charizard\",\"url\":\"https:\/\/pokeapi.co\/api\/v2\/pokemon\/6\/\"},{\"name\":\"squirtle\",\"url\":\"https:\/\/pokeapi.co\/api\/v2\/pokemon\/7\/\"},{\"name\":\"wartortle\",\"url\":\"https:\/\/pokeapi.co\/api\/v2\/pokemon\/8\/\"},{\"name\":\"blastoise\",\"url\":\"https:\/\/pokeapi.co\/api\/v2\/pokemon\/9\/\"},{\"name\":\"caterpie\",\"url\":\"https:\/\/pokeapi.co\/api\/v2\/pokemon\/10\/\"},{\"name\":\"metapod\",\"url\":\"https:\/\/pokeapi.co\/api\/v2\/pokemon\/11\/\"},{\"name\":\"butterfree\",\"url\":\"https:\/\/pokeapi.co\/api\/v2\/pokemon\/12\/\"},{\"name\":\"weedle\",\"url\":\"https:\/\/pokeapi.co\/api\/v2\/pokemon\/13\/\"},{\"name\":\"kakuna\",\"url\":\"https:\/\/pokeapi.co\/api\/v2\/pokemon\/14\/\"},{\"name\":\"beedrill\",\"url\":\"https:\/\/pokeapi.co\/api\/v2\/pokemon\/15\/\"},{\"name\":\"pidgey\",\"url\":\"https:\/\/pokeapi.co\/api\/v2\/pokemon\/16\/\"},{\"name\":\"pidgeotto\",\"url\":\"https:\/\/pokeapi.co\/api\/v2\/pokemon\/17\/\"},{\"name\":\"pidgeot\",\"url\":\"https:\/\/pokeapi.co\/api\/v2\/pokemon\/18\/\"},{\"name\":\"rattata\",\"url\":\"https:\/\/pokeapi.co\/api\/v2\/pokemon\/19\/\"},{\"name\":\"raticate\",\"url\":\"https:\/\/pokeapi.co\/api\/v2\/pokemon\/20\/\"}]}\n\n"},{"result":{"nanos":28200,"millis":0.0282,"status":"passed"},"step":{"line":27,"prefix":"Then","index":3,"text":"status 200"}},{"result":{"nanos":155068300,"millis":155.0683,"status":"passed"},"step":{"line":28,"prefix":"And","index":4,"text":"print response.length"},"stepLog":"23:25:33.577 [print] null \n"},{"result":{"nanos":5139000,"millis":5.139,"status":"passed"},"step":{"line":29,"prefix":"And","index":5,"text":"print response.count"},"stepLog":"23:25:33.577 [print] 1281 \n"},{"result":{"nanos":71577500,"millis":71.5775,"status":"passed"},"step":{"line":30,"prefix":"And","index":6,"text":"match response.count == 1281"}}],"executorName":"main","line":23,"name":"Numero certo de pokemons","description":"","durationMillis":20696.3517,"startTime":1687832712943,"failed":false,"refId":"[4:23]","endTime":1687832733660,"exampleIndex":-1}],"callDepth":0,"name":"Testando Api do Pokemon","description":"","resultDate":"2023-06-26 11:25:33 p.m.","durationMillis":20696.3517,"passedCount":1}