{"failedCount":0,"prefixedPath":"aula_inatel\/src\/test\/java\/aula_inatel\/prova\/prova.feature","packageQualifiedName":"aula_inatel.src.test.java.aula_inatel.prova.prova","loopIndex":-1,"relativePath":"aula_inatel\/src\/test\/java\/aula_inatel\/prova\/prova.feature","scenarioResults":[{"sectionIndex":3,"stepResults":[{"result":{"nanos":115077100,"millis":115.0771,"status":"passed"},"step":{"background":true,"line":4,"prefix":"*","index":0,"text":"def url_base = \"https:\/\/pokeapi.co\/api\/v2\""}},{"result":{"nanos":27168100,"millis":27.1681,"status":"passed"},"step":{"line":24,"prefix":"Given","index":0,"text":"url url_base"}},{"result":{"nanos":686900,"millis":0.6869,"status":"passed"},"step":{"line":25,"prefix":"And","index":1,"text":"path \"\/pokemon\""}},{"result":{"nanos":20672520800,"millis":20672.5208,"status":"passed"},"step":{"line":26,"prefix":"When","index":2,"text":"method get"},"stepLog":"23:22:35.437 request:\n1 > GET https:\/\/pokeapi.co\/api\/v2\/pokemon\n1 > Host: pokeapi.co\n1 > Connection: Keep-Alive\n1 > User-Agent: Apache-HttpClient\/4.5.14 (Java\/17.0.6)\n1 > Accept-Encoding: gzip,deflate\n\n\n23:22:55.598 response time in milliseconds: 891\n1 < 200\n1 < Date: Tue, 27 Jun 2023 02:22:36 GMT\n1 < Content-Type: application\/json; charset=utf-8\n1 < Connection: keep-alive\n1 < access-control-allow-origin: *\n1 < Cache-Control: public, max-age=86400, s-maxage=86400\n1 < etag: W\/\"588-lkKxb4UAQba+jzmIaSKjLOTghRY\"\n1 < function-execution-id: yexr7xkcymeh\n1 < strict-transport-security: max-age=31556926\n1 < x-cloud-trace-context: 433c1d935596d122d8781d71ff01475b\n1 < x-country-code: CA\n1 < x-orig-accept-language: es-ES,es;q=0.9\n1 < x-powered-by: Express\n1 < x-served-by: cache-yyz4537-YYZ\n1 < x-cache: HIT\n1 < x-cache-hits: 3\n1 < x-timer: S1681545656.553117,VS0,VE0\n1 < vary: Accept-Encoding,cookie,need-authorization, x-fh-requested-host, accept-encoding\n1 < alt-svc: h3=\":443\"; ma=86400\n1 < CF-Cache-Status: HIT\n1 < Accept-Ranges: bytes\n1 < Report-To: {\"endpoints\":[{\"url\":\"https:\\\/\\\/a.nel.cloudflare.com\\\/report\\\/v3?s=Yv5q11mKf7BylFEfDQxsIc1e%2FbrwKm%2FLIZa6nO73pblSwk3boQmaHYm9R%2B9vTZuUR7t%2F2Y6UGhJdSwp8cxtmfK%2BTFzeok0kgPIfy34TbsYxRcZPIm5tucZaQOYvD\"}],\"group\":\"cf-nel\",\"max_age\":604800}\n1 < NEL: {\"success_fraction\":0,\"report_to\":\"cf-nel\",\"max_age\":604800}\n1 < Server: cloudflare\n1 < CF-RAY: 7dda3922ecbed9a1-MIA\n{\"count\":1281,\"next\":\"https:\/\/pokeapi.co\/api\/v2\/pokemon?offset=20&limit=20\",\"previous\":null,\"results\":[{\"name\":\"bulbasaur\",\"url\":\"https:\/\/pokeapi.co\/api\/v2\/pokemon\/1\/\"},{\"name\":\"ivysaur\",\"url\":\"https:\/\/pokeapi.co\/api\/v2\/pokemon\/2\/\"},{\"name\":\"venusaur\",\"url\":\"https:\/\/pokeapi.co\/api\/v2\/pokemon\/3\/\"},{\"name\":\"charmander\",\"url\":\"https:\/\/pokeapi.co\/api\/v2\/pokemon\/4\/\"},{\"name\":\"charmeleon\",\"url\":\"https:\/\/pokeapi.co\/api\/v2\/pokemon\/5\/\"},{\"name\":\"charizard\",\"url\":\"https:\/\/pokeapi.co\/api\/v2\/pokemon\/6\/\"},{\"name\":\"squirtle\",\"url\":\"https:\/\/pokeapi.co\/api\/v2\/pokemon\/7\/\"},{\"name\":\"wartortle\",\"url\":\"https:\/\/pokeapi.co\/api\/v2\/pokemon\/8\/\"},{\"name\":\"blastoise\",\"url\":\"https:\/\/pokeapi.co\/api\/v2\/pokemon\/9\/\"},{\"name\":\"caterpie\",\"url\":\"https:\/\/pokeapi.co\/api\/v2\/pokemon\/10\/\"},{\"name\":\"metapod\",\"url\":\"https:\/\/pokeapi.co\/api\/v2\/pokemon\/11\/\"},{\"name\":\"butterfree\",\"url\":\"https:\/\/pokeapi.co\/api\/v2\/pokemon\/12\/\"},{\"name\":\"weedle\",\"url\":\"https:\/\/pokeapi.co\/api\/v2\/pokemon\/13\/\"},{\"name\":\"kakuna\",\"url\":\"https:\/\/pokeapi.co\/api\/v2\/pokemon\/14\/\"},{\"name\":\"beedrill\",\"url\":\"https:\/\/pokeapi.co\/api\/v2\/pokemon\/15\/\"},{\"name\":\"pidgey\",\"url\":\"https:\/\/pokeapi.co\/api\/v2\/pokemon\/16\/\"},{\"name\":\"pidgeotto\",\"url\":\"https:\/\/pokeapi.co\/api\/v2\/pokemon\/17\/\"},{\"name\":\"pidgeot\",\"url\":\"https:\/\/pokeapi.co\/api\/v2\/pokemon\/18\/\"},{\"name\":\"rattata\",\"url\":\"https:\/\/pokeapi.co\/api\/v2\/pokemon\/19\/\"},{\"name\":\"raticate\",\"url\":\"https:\/\/pokeapi.co\/api\/v2\/pokemon\/20\/\"}]}\n\n"},{"result":{"nanos":34200,"millis":0.0342,"status":"passed"},"step":{"line":27,"prefix":"Then","index":3,"text":"status 200"}},{"result":{"nanos":351385900,"millis":351.3859,"status":"passed"},"step":{"line":28,"prefix":"And","index":4,"text":"print response.length"},"stepLog":"23:22:56.088 [print] null \n"}],"executorName":"main","line":23,"name":"Teste, ira retorna 5 mil fotos","description":"","durationMillis":21166.873,"startTime":1687832554906,"failed":false,"refId":"[4:23]","endTime":1687832576096,"exampleIndex":-1}],"callDepth":0,"name":"Testando Api do Pokemon","description":"","resultDate":"2023-06-26 11:22:56 p.m.","durationMillis":21166.873,"passedCount":1}